…
    ## pivot_longer: reorganized (any_opioid, synthetic_opioids, common_opioids, heroin) into (drug_type, death_rate) [was 18x5, now 72x3]

    ## mutate: new variable 'date_display' (Date) with 18 unique values and 0% NA

``` r
cdc_tp
```

    ## # A tibble: 72 x 4
    ##     year drug_type         death_rate date_display
    ##    <dbl> <chr>                  <dbl> <date>      
    ##  1  2000 any_opioid               3   2000-01-01  
    ##  2  2000 synthetic_opioids        0.3 2000-01-01  
    ##  3  2000 common_opioids           1.3 2000-01-01  
    ##  4  2000 heroin                   0.7 2000-01-01  
    ##  5  2001 any_opioid               3.3 2001-01-01  
    ##  6  2001 synthetic_opioids        0.3 2001-01-01  
    ##  7  2001 common_opioids           1.7 2001-01-01  
    ##  8  2001 heroin                   0.6 2001-01-01  
    ##  9  2002 any_opioid               4.1 2002-01-01  
    ## 10  2002 synthetic_opioids        0.4 2002-01-01  
    ## # ... with 62 more rows
…
